[
    {
        "YEAR_LABEL": "2020",
        "CURRENT_YEAR": true,
        "YEAR_ITEMS": [
            {
                "LABEL": "November",
                "LOCATION_PREFIX": "files/meeting_minutes/Minutes_"
            },{
                "LABEL": "October",
                "LOCATION_PREFIX": "files/meeting_minutes/Minutes_"
            },{
                "LABEL": "September",
                "LOCATION_PREFIX": "files/meeting_minutes/Minutes_"
            },{
                "LABEL": "August",
                "LOCATION_PREFIX": "files/meeting_minutes/Minutes_"
            },{
                "LABEL": "July",
                "LOCATION_PREFIX": "files/meeting_minutes/Minutes_"
            },{
                "LABEL": "June",
                "LOCATION_PREFIX": "files/meeting_minutes/Minutes_"
            },{
                "LABEL": "May",
                "LOCATION_PREFIX": "files/meeting_minutes/Minutes_"
            },{
                "LABEL": "April",
                "LOCATION_PREFIX": "files/meeting_minutes/Minutes_"
            },{
                "LABEL": "March",
                "LOCATION_PREFIX": "files/meeting_minutes/Minutes_"
            },{
                "LABEL": "February",
                "LOCATION_PREFIX": "files/meeting_minutes/Minutes_"
            },{
                "LABEL": "January",
                "LOCATION_PREFIX": "files/meeting_minutes/Minutes_"
            }
        ]
    },
    {
        "YEAR_LABEL": "2019",
        "CURRENT_YEAR": false,
        "YEAR_ITEMS": [
            {
                "LABEL": "December (Special)",
                "LOCATION_PREFIX": "files/meeting_minutes/Minutes_"
            },{
                "LABEL": "December",
                "LOCATION_PREFIX": "files/meeting_minutes/Minutes_"
            },{
                "LABEL": "November",
                "LOCATION_PREFIX": "files/meeting_minutes/Minutes_"
            },{
                "LABEL": "October",
                "LOCATION_PREFIX": "files/meeting_minutes/Minutes_"
            },{
                "LABEL": "September",
                "LOCATION_PREFIX": "files/meeting_minutes/Minutes_"
            },{
                "LABEL": "August",
                "LOCATION_PREFIX": "files/meeting_minutes/Minutes_"
            },{
                "LABEL": "July",
                "LOCATION_PREFIX": "files/meeting_minutes/Minutes_"
            },{
                "LABEL": "June",
                "LOCATION_PREFIX": "files/meeting_minutes/Minutes_"
            },{
                "LABEL": "May",
                "LOCATION_PREFIX": "files/meeting_minutes/Minutes_"
            },{
                "LABEL": "April",
                "LOCATION_PREFIX": "files/meeting_minutes/Minutes_"
            },{
                "LABEL": "March",
                "LOCATION_PREFIX": "files/meeting_minutes/Minutes_"
            },{
                "LABEL": "February",
                "LOCATION_PREFIX": "files/meeting_minutes/Minutes_"
            },{
                "LABEL": "January",
                "LOCATION_PREFIX": "files/meeting_minutes/Minutes_"
            }
        ]
    },{
        "YEAR_LABEL": "2018",
        "CURRENT_YEAR": false,
        "YEAR_ITEMS": [
            {
                "LABEL": "December",
                "LOCATION_PREFIX": "files/meeting_minutes/Minutes_"
            },{
                "LABEL": "November",
                "LOCATION_PREFIX": "files/meeting_minutes/Minutes_"
            },{
                "LABEL": "October",
                "LOCATION_PREFIX": "files/meeting_minutes/Minutes_"
            },{
                "LABEL": "September",
                "LOCATION_PREFIX": "files/meeting_minutes/Minutes_"
            },{
                "LABEL": "August",
                "LOCATION_PREFIX": "files/meeting_minutes/Minutes_"
            },{
                "LABEL": "July",
                "LOCATION_PREFIX": "files/meeting_minutes/Minutes_"
            },{
                "LABEL": "June",
                "LOCATION_PREFIX": "files/meeting_minutes/Minutes_"
            },{
                "LABEL": "May",
                "LOCATION_PREFIX": "files/meeting_minutes/Minutes_"
            },{
                "LABEL": "April",
                "LOCATION_PREFIX": "files/meeting_minutes/Minutes_"
            },{
                "LABEL": "March",
                "LOCATION_PREFIX": "files/meeting_minutes/Minutes_"
            },{
                "LABEL": "February",
                "LOCATION_PREFIX": "files/meeting_minutes/Minutes_"
            },{
                "LABEL": "January",
                "LOCATION_PREFIX": "files/meeting_minutes/Minutes_"
            }
        ]
    },{
        "YEAR_LABEL": "2017",
        "CURRENT_YEAR": false,
        "YEAR_ITEMS": [
            {
                "LABEL": "December",
                "LOCATION_PREFIX": "files/meeting_minutes/Minutes_"
            },{
                "LABEL": "November",
                "LOCATION_PREFIX": "files/meeting_minutes/Minutes_"
            },{
                "LABEL": "October",
                "LOCATION_PREFIX": "files/meeting_minutes/Minutes_"
            },{
                "LABEL": "September",
                "LOCATION_PREFIX": "files/meeting_minutes/Minutes_"
            },{
                "LABEL": "August",
                "LOCATION_PREFIX": "files/meeting_minutes/Minutes_"
            },{
                "LABEL": "July",
                "LOCATION_PREFIX": "files/meeting_minutes/Minutes_"
            },{
                "LABEL": "June",
                "LOCATION_PREFIX": "files/meeting_minutes/Minutes_"
            },{
                "LABEL": "May",
                "LOCATION_PREFIX": "files/meeting_minutes/Minutes_"
            },{
                "LABEL": "April",
                "LOCATION_PREFIX": "files/meeting_minutes/Minutes_"
            },{
                "LABEL": "March",
                "LOCATION_PREFIX": "files/meeting_minutes/Minutes_"
            },{
                "LABEL": "February",
                "LOCATION_PREFIX": "files/meeting_minutes/Minutes_"
            },{
                "LABEL": "January",
                "LOCATION_PREFIX": "files/meeting_minutes/Minutes_"
            }
        ]
    },{
        "YEAR_LABEL": "2016",
        "CURRENT_YEAR": false,
        "YEAR_ITEMS": [
            {
                "LABEL": "December",
                "LOCATION_PREFIX": "files/meeting_minutes/Minutes_"
            },{
                "LABEL": "November",
                "LOCATION_PREFIX": "files/meeting_minutes/Minutes_"
            },{
                "LABEL": "October",
                "LOCATION_PREFIX": "files/meeting_minutes/Minutes_"
            },{
                "LABEL": "September",
                "LOCATION_PREFIX": "files/meeting_minutes/Minutes_"
            },{
                "LABEL": "August",
                "LOCATION_PREFIX": "files/meeting_minutes/Minutes_"
            },{
                "LABEL": "July",
                "LOCATION_PREFIX": "files/meeting_minutes/Minutes_"
            },{
                "LABEL": "June",
                "LOCATION_PREFIX": "files/meeting_minutes/Minutes_"
            },{
                "LABEL": "May",
                "LOCATION_PREFIX": "files/meeting_minutes/Minutes_"
            },{
                "LABEL": "April",
                "LOCATION_PREFIX": "files/meeting_minutes/Minutes_"
            },{
                "LABEL": "March",
                "LOCATION_PREFIX": "files/meeting_minutes/Minutes_"
            },{
                "LABEL": "February",
                "LOCATION_PREFIX": "files/meeting_minutes/Minutes_"
            },{
                "LABEL": "January",
                "LOCATION_PREFIX": "files/meeting_minutes/Minutes_"
            }
        ]
    },{
        "YEAR_LABEL": "2015",
        "CURRENT_YEAR": false,
        "YEAR_ITEMS": [
            {
                "LABEL": "December",
                "LOCATION_PREFIX": "files/meeting_minutes/Minutes_"
            },{
                "LABEL": "November",
                "LOCATION_PREFIX": "files/meeting_minutes/Minutes_"
            },{
                "LABEL": "October",
                "LOCATION_PREFIX": "files/meeting_minutes/Minutes_"
            },{
                "LABEL": "September",
                "LOCATION_PREFIX": "files/meeting_minutes/Minutes_"
            },{
                "LABEL": "August",
                "LOCATION_PREFIX": "files/meeting_minutes/Minutes_"
            },{
                "LABEL": "July",
                "LOCATION_PREFIX": "files/meeting_minutes/Minutes_"
            },{
                "LABEL": "June",
                "LOCATION_PREFIX": "files/meeting_minutes/Minutes_"
            },{
                "LABEL": "May",
                "LOCATION_PREFIX": "files/meeting_minutes/Minutes_"
            },{
                "LABEL": "April",
                "LOCATION_PREFIX": "files/meeting_minutes/Minutes_"
            },{
                "LABEL": "March",
                "LOCATION_PREFIX": "files/meeting_minutes/Minutes_"
            },{
                "LABEL": "February",
                "LOCATION_PREFIX": "files/meeting_minutes/Minutes_"
            },{
                "LABEL": "January",
                "LOCATION_PREFIX": "files/meeting_minutes/Minutes_"
            }
        ]
    },{
        "YEAR_LABEL": "2014",
        "CURRENT_YEAR": false,
        "YEAR_ITEMS": [
            {
                "LABEL": "December",
                "LOCATION_PREFIX": "files/meeting_minutes/Minutes_"
            },{
                "LABEL": "November",
                "LOCATION_PREFIX": "files/meeting_minutes/Minutes_"
            },{
                "LABEL": "October",
                "LOCATION_PREFIX": "files/meeting_minutes/Minutes_"
            },{
                "LABEL": "September",
                "LOCATION_PREFIX": "files/meeting_minutes/Minutes_"
            },{
                "LABEL": "August",
                "LOCATION_PREFIX": "files/meeting_minutes/Minutes_"
            },{
                "LABEL": "July",
                "LOCATION_PREFIX": "files/meeting_minutes/Minutes_"
            },{
                "LABEL": "June",
                "LOCATION_PREFIX": "files/meeting_minutes/Minutes_"
            },{
                "LABEL": "May",
                "LOCATION_PREFIX": "files/meeting_minutes/Minutes_"
            },{
                "LABEL": "April",
                "LOCATION_PREFIX": "files/meeting_minutes/Minutes_"
            },{
                "LABEL": "March",
                "LOCATION_PREFIX": "files/meeting_minutes/Minutes_"
            },{
                "LABEL": "February",
                "LOCATION_PREFIX": "files/meeting_minutes/Minutes_"
            },{
                "LABEL": "January",
                "LOCATION_PREFIX": "files/meeting_minutes/Minutes_"
            }
        ]
    },{
        "YEAR_LABEL": "2013",
        "CURRENT_YEAR": false,
        "YEAR_ITEMS": [
            {
                "LABEL": "December",
                "LOCATION_PREFIX": "files/meeting_minutes/Minutes_"
            },{
                "LABEL": "November",
                "LOCATION_PREFIX": "files/meeting_minutes/Minutes_"
            },{
                "LABEL": "October",
                "LOCATION_PREFIX": "files/meeting_minutes/Minutes_"
            },{
                "LABEL": "September",
                "LOCATION_PREFIX": "files/meeting_minutes/Minutes_"
            },{
                "LABEL": "August",
                "LOCATION_PREFIX": "files/meeting_minutes/Minutes_"
            },{
                "LABEL": "July",
                "LOCATION_PREFIX": "files/meeting_minutes/Minutes_"
            },{
                "LABEL": "June",
                "LOCATION_PREFIX": "files/meeting_minutes/Minutes_"
            },{
                "LABEL": "May",
                "LOCATION_PREFIX": "files/meeting_minutes/Minutes_"
            },{
                "LABEL": "April",
                "LOCATION_PREFIX": "files/meeting_minutes/Minutes_"
            },{
                "LABEL": "March",
                "LOCATION_PREFIX": "files/meeting_minutes/Minutes_"
            },{
                "LABEL": "February",
                "LOCATION_PREFIX": "files/meeting_minutes/Minutes_"
            },{
                "LABEL": "January",
                "LOCATION_PREFIX": "files/meeting_minutes/Minutes_"
            }
        ]
    }
]
